                                                         BISHOP.H
#pragma once
#include<iostream>
#include<string>
#include"CHESS.h"

using namespace std;

class Bishop :virtual public CHESS
{
protected:
	string r; //to check the movement fot the bishop
public:
	Bishop();
	~Bishop();
	void setr(string choice);
};







                                            BISHOP.CCP

#include "Bishop.h"
#include<iostream>
#include<string>


using namespace std;


Bishop::Bishop()
{
}


Bishop::~Bishop()
{
}

void Bishop::setr(string choice)
{
	r = choice;
}